Clean and Reformat
…
    intersect, setdiff, setequal, union

library(tidyr)
library(ggplot2)
library(readr)
library(stringr)
library(forcats)

url <- "https://raw.githubusercontent.com/byuistats/data/master/Dart_Expert_Dow_6month_anova/Dart_Expert_Dow_6month_anova.RDS"

data <- read_rds(url)

data

# A tibble: 300 × 3
   contest_period             variable value
   <chr>                      <chr>    <dbl>
 1 January-June1990           PROS      12.7
 2 February-July1990          PROS      26.4
 3 March-August1990           PROS       2.5
 4 April-September1990        PROS     -20  
 5 May-October1990            PROS     -37.8
 6 June-November1990          PROS     -33.3
 7 July-December1990          PROS     -10.2
 8 August1990-January1991     PROS     -20.3
 9 September1990-February1991 PROS      38.9
10 October1990-March1991      PROS      20.2
# ℹ 290 more rows
…
data <- data %>% 
  mutate(contest_period = str_replace(contest_period, "July1993-Dec.1993", "July1993-December1993")) %>%
  mutate(contest_period = str_replace(contest_period, "Febuary-July1995", "February-July1995")) %>%
  mutate(contest_period = str_replace(contest_period, "September1994-Febuary1995", "September1994-February1995"))

data <- data %>%
  mutate(
    month_end = gsub(".*-(.*?)\\d+", "\\1", contest_period),
    year_end = as.integer(gsub(".*([0-9]{4})", "\\1", contest_period))
  )

data

# A tibble: 300 × 5
   contest_period             variable value month_end year_end
   <chr>                      <chr>    <dbl> <chr>        <int>
 1 January-June1990           PROS      12.7 June          1990
 2 February-July1990          PROS      26.4 July          1990
 3 March-August1990           PROS       2.5 August        1990
 4 April-September1990        PROS     -20   September     1990
 5 May-October1990            PROS     -37.8 October       1990
 6 June-November1990          PROS     -33.3 November      1990
 7 July-December1990          PROS     -10.2 December      1990
 8 August1990-January1991     PROS     -20.3 January       1991
 9 September1990-February1991 PROS      38.9 February      1991
10 October1990-March1991      PROS      20.2 March         1991
# ℹ 290 more rows

df <- data %>%
  filter(variable == "DJIA")

df

# A tibble: 100 × 5
   contest_period             variable value month_end year_end
   <chr>                      <chr>    <dbl> <chr>        <int>
 1 January-June1990           DJIA       2.5 June          1990
 2 February-July1990          DJIA      11.5 July          1990
 3 March-August1990           DJIA      -2.3 August        1990
 4 April-September1990        DJIA      -9.2 September     1990
 5 May-October1990            DJIA      -8.5 October       1990
 6 June-November1990          DJIA     -12.8 November      1990
 7 July-December1990          DJIA      -9.3 December      1990
 8 August1990-January1991     DJIA      -0.8 January       1991
 9 September1990-February1991 DJIA      11   February      1991
10 October1990-March1991      DJIA      15.8 March         1991
# ℹ 90 more rows

tidy_data_selected <- df %>%
  select(value, month_end, year_end)

saveRDS(tidy_data_selected, "clean_data.rds")

df <- readRDS("clean_data.rds")

df

# A tibble: 100 × 3
   value month_end year_end
   <dbl> <chr>        <int>
 1   2.5 June          1990
 2  11.5 July          1990
 3  -2.3 August        1990
 4  -9.2 September     1990
 5  -8.5 October       1990
 6 -12.8 November      1990
 7  -9.3 December      1990
 8  -0.8 January       1991
 9  11   February      1991
10  15.8 March         1991
# ℹ 90 more rows
…
     value          month_end            year_end   
 Min.   :-13.100   Length:100         Min.   :1990  
 1st Qu.:  1.575   Class :character   1st Qu.:1992  
 Median :  7.000   Mode  :character   Median :1994  
 Mean   :  6.793                      Mean   :1994  
 3rd Qu.: 13.150                      3rd Qu.:1996  
 Max.   : 22.500                      Max.   :1998  

df <- df %>%
  mutate(month = factor(month_end, levels = month.name)) %>%
  arrange(month) %>%
  arrange(year_end)
df

# A tibble: 100 × 4
   value month_end year_end month    
   <dbl> <chr>        <int> <fct>    
 1   2.5 June          1990 June     
 2  11.5 July          1990 July     
 3  -2.3 August        1990 August   
 4  -9.2 September     1990 September
 5  -8.5 October       1990 October  
 6 -12.8 November      1990 November 
 7  -9.3 December      1990 December 
 8  -0.8 January       1991 January  
 9  11   February      1991 February 
10  15.8 March         1991 March    
# ℹ 90 more rows
…
