…
data <- read_rds(url)
```
:::

::: cell
``` {.r .cell-code}
data
```

::: {.cell-output .cell-output-stdout}
```         
# A tibble: 300 × 3
   contest_period             variable value
   <chr>                      <chr>    <dbl>
 1 January-June1990           PROS      12.7
 2 February-July1990          PROS      26.4
 3 March-August1990           PROS       2.5
 4 April-September1990        PROS     -20  
 5 May-October1990            PROS     -37.8
 6 June-November1990          PROS     -33.3
 7 July-December1990          PROS     -10.2
 8 August1990-January1991     PROS     -20.3
 9 September1990-February1991 PROS      38.9
10 October1990-March1991      PROS      20.2
# ℹ 290 more rows
```
…
::: cell
``` {.r .cell-code}
data
```

::: {.cell-output .cell-output-stdout}
```         
# A tibble: 300 × 5
   contest_period             variable value month_end year_end
   <chr>                      <chr>    <dbl> <chr>        <int>
 1 January-June1990           PROS      12.7 June          1990
 2 February-July1990          PROS      26.4 July          1990
 3 March-August1990           PROS       2.5 August        1990
 4 April-September1990        PROS     -20   September     1990
 5 May-October1990            PROS     -37.8 October       1990
 6 June-November1990          PROS     -33.3 November      1990
 7 July-December1990          PROS     -10.2 December      1990
 8 August1990-January1991     PROS     -20.3 January       1991
 9 September1990-February1991 PROS      38.9 February      1991
10 October1990-March1991      PROS      20.2 March         1991
# ℹ 290 more rows
```
:::
:::

::: cell
``` {.r .cell-code}
df <- data %>%
  filter(variable == "DJIA")


df
```

::: {.cell-output .cell-output-stdout}
```         
# A tibble: 100 × 5
   contest_period             variable value month_end year_end
   <chr>                      <chr>    <dbl> <chr>        <int>
 1 January-June1990           DJIA       2.5 June          1990
 2 February-July1990          DJIA      11.5 July          1990
 3 March-August1990           DJIA      -2.3 August        1990
 4 April-September1990        DJIA      -9.2 September     1990
 5 May-October1990            DJIA      -8.5 October       1990
 6 June-November1990          DJIA     -12.8 November      1990
 7 July-December1990          DJIA      -9.3 December      1990
 8 August1990-January1991     DJIA      -0.8 January       1991
 9 September1990-February1991 DJIA      11   February      1991
10 October1990-March1991      DJIA      15.8 March         1991
# ℹ 90 more rows
```
…
::: cell
``` {.r .cell-code}
df <- readRDS("clean_data.rds")
```
:::

::: cell
``` {.r .cell-code}
df
```

::: {.cell-output .cell-output-stdout}
```         
# A tibble: 100 × 3
   value month_end year_end
   <dbl> <chr>        <int>
 1   2.5 June          1990
 2  11.5 July          1990
 3  -2.3 August        1990
 4  -9.2 September     1990
 5  -8.5 October       1990
 6 -12.8 November      1990
 7  -9.3 December      1990
 8  -0.8 January       1991
 9  11   February      1991
10  15.8 March         1991
# ℹ 90 more rows
```
…
::: cell
``` {.r .cell-code}
df <- df %>%
  mutate(month = factor(month_end, levels = month.name)) %>%
  arrange(month) %>%
  arrange(year_end)
df
```

::: {.cell-output .cell-output-stdout}
```         
# A tibble: 100 × 4
   value month_end year_end month    
   <dbl> <chr>        <int> <fct>    
 1   2.5 June          1990 June     
 2  11.5 July          1990 July     
 3  -2.3 August        1990 August   
 4  -9.2 September     1990 September
 5  -8.5 October       1990 October  
 6 -12.8 November      1990 November 
 7  -9.3 December      1990 December 
 8  -0.8 January       1991 January  
 9  11   February      1991 February 
10  15.8 March         1991 March    
# ℹ 90 more rows
```
…
